3 R Markdown | Building Skills in Quantitative Biology
…
We have a sample size of 50.

This is done (as mentioned above) by the code:

Note that you need the space straight after the r.

We can also automatically say that the maximum value of the data is 506.5564788, or round it to a
whole number: the maximum value of the data is 507. These were done by:

Show some of the data

Let’s combine the data in a tibble (think of it as a data frame if you don’t
know what that is):

# A tibble: 50 x 2
       x     y
   <int> <dbl>
 1     1  23.7
 2     2  14.4
 3     3  33.6
 4     4  46.3
 5     5  54.0
 6     6  58.9
 7     7  85.1
 8     8  79.1
 9     9 110. 
10    10  99.4
# ... with 40 more rows
…
